﻿<?xml version="1.0" encoding="utf-8"?>
<svg version="1.1" xmlns:xlink="http://www.w3.org/1999/xlink" width="29px" height="31px" xmlns="http://www.w3.org/2000/svg">
  <g transform="matrix(1 0 0 1 -352 -275 )">
    <path d="M 2.23076923076923 23.8035714285714  L 2.23076923076923 28.7857142857143  L 7.25 28.7857142857143  L 7.25 23.8035714285714  L 2.23076923076923 23.8035714285714  Z M 8.36538461538461 23.8035714285714  L 8.36538461538461 28.7857142857143  L 13.9423076923077 28.7857142857143  L 13.9423076923077 23.8035714285714  L 8.36538461538461 23.8035714285714  Z M 2.23076923076923 17.1607142857143  L 2.23076923076923 22.6964285714286  L 7.25 22.6964285714286  L 7.25 17.1607142857143  L 2.23076923076923 17.1607142857143  Z M 8.36538461538461 17.1607142857143  L 8.36538461538461 22.6964285714286  L 13.9423076923077 22.6964285714286  L 13.9423076923077 17.1607142857143  L 8.36538461538461 17.1607142857143  Z M 2.23076923076923 11.0714285714286  L 2.23076923076923 16.0535714285714  L 7.25 16.0535714285714  L 7.25 11.0714285714286  L 2.23076923076923 11.0714285714286  Z M 15.0576923076923 23.8035714285714  L 15.0576923076923 28.7857142857143  L 20.6346153846154 28.7857142857143  L 20.6346153846154 23.8035714285714  L 15.0576923076923 23.8035714285714  Z M 8.36538461538461 11.0714285714286  L 8.36538461538461 16.0535714285714  L 13.9423076923077 16.0535714285714  L 13.9423076923077 11.0714285714286  L 8.36538461538461 11.0714285714286  Z M 21.75 23.8035714285714  L 21.75 28.7857142857143  L 26.7692307692308 28.7857142857143  L 26.7692307692308 23.8035714285714  L 21.75 23.8035714285714  Z M 15.0576923076923 17.1607142857143  L 15.0576923076923 22.6964285714286  L 20.6346153846154 22.6964285714286  L 20.6346153846154 17.1607142857143  L 15.0576923076923 17.1607142857143  Z M 8.75751201923077 8.13922991071429  C 8.86788862179487 8.02966889880952  8.92307692307692 7.89992559523809  8.92307692307692 7.75  L 8.92307692307692 2.76785714285714  C 8.92307692307692 2.61793154761905  8.86788862179487 2.48818824404762  8.75751201923077 2.37862723214286  C 8.64713541666667 2.26906622023809  8.51642628205128 2.21428571428571  8.36538461538461 2.21428571428571  L 7.25 2.21428571428571  C 7.09895833333333 2.21428571428571  6.96824919871795 2.26906622023809  6.85787259615385 2.37862723214286  C 6.74749599358974 2.48818824404762  6.69230769230769 2.61793154761905  6.69230769230769 2.76785714285714  L 6.69230769230769 7.75  C 6.69230769230769 7.89992559523809  6.74749599358974 8.02966889880952  6.85787259615385 8.13922991071429  C 6.96824919871795 8.24879092261905  7.09895833333333 8.30357142857143  7.25 8.30357142857143  L 8.36538461538461 8.30357142857143  C 8.51642628205128 8.30357142857143  8.64713541666667 8.24879092261905  8.75751201923077 8.13922991071429  Z M 21.75 17.1607142857143  L 21.75 22.6964285714286  L 26.7692307692308 22.6964285714286  L 26.7692307692308 17.1607142857143  L 21.75 17.1607142857143  Z M 15.0576923076923 11.0714285714286  L 15.0576923076923 16.0535714285714  L 20.6346153846154 16.0535714285714  L 20.6346153846154 11.0714285714286  L 15.0576923076923 11.0714285714286  Z M 21.75 11.0714285714286  L 21.75 16.0535714285714  L 26.7692307692308 16.0535714285714  L 26.7692307692308 11.0714285714286  L 21.75 11.0714285714286  Z M 22.1421274038462 8.13922991071429  C 22.2525040064103 8.02966889880952  22.3076923076923 7.89992559523809  22.3076923076923 7.75  L 22.3076923076923 2.76785714285714  C 22.3076923076923 2.61793154761905  22.2525040064103 2.48818824404762  22.1421274038462 2.37862723214286  C 22.0317508012821 2.26906622023809  21.9010416666667 2.21428571428571  21.75 2.21428571428571  L 20.6346153846154 2.21428571428571  C 20.4835737179487 2.21428571428571  20.3528645833333 2.26906622023809  20.2424879807692 2.37862723214286  C 20.1321113782051 2.48818824404762  20.0769230769231 2.61793154761905  20.0769230769231 2.76785714285714  L 20.0769230769231 7.75  C 20.0769230769231 7.89992559523809  20.1321113782051 8.02966889880952  20.2424879807692 8.13922991071429  C 20.3528645833333 8.24879092261905  20.4835737179487 8.30357142857143  20.6346153846154 8.30357142857143  L 21.75 8.30357142857143  C 21.9010416666667 8.30357142857143  22.0317508012821 8.24879092261905  22.1421274038462 8.13922991071429  Z M 28.3377403846154 5.0859375  C 28.7792467948718 5.52418154761905  29 6.04315476190476  29 6.64285714285714  L 29 28.7857142857143  C 29 29.3854166666667  28.7792467948718 29.9043898809524  28.3377403846154 30.3426339285714  C 27.896233974359 30.7808779761905  27.3733974358974 31  26.7692307692308 31  L 2.23076923076923 31  C 1.62660256410256 31  1.10376602564103 30.7808779761905  0.662259615384615 30.3426339285714  C 0.220753205128205 29.9043898809524  0 29.3854166666667  0 28.7857142857143  L 0 6.64285714285714  C 0 6.04315476190476  0.220753205128205 5.52418154761905  0.662259615384615 5.0859375  C 1.10376602564103 4.64769345238095  1.62660256410256 4.42857142857143  2.23076923076923 4.42857142857143  L 4.46153846153846 4.42857142857143  L 4.46153846153846 2.76785714285714  C 4.46153846153846 2.00669642857143  4.73457532051282 1.35509672619047  5.28064903846154 0.813058035714287  C 5.82672275641026 0.271019345238096  6.48317307692308 0  7.25 0  L 8.36538461538461 0  C 9.13221153846154 0  9.78866185897436 0.271019345238096  10.3347355769231 0.813058035714287  C 10.8808092948718 1.35509672619047  11.1538461538462 2.00669642857143  11.1538461538462 2.76785714285714  L 11.1538461538462 4.42857142857143  L 17.8461538461538 4.42857142857143  L 17.8461538461538 2.76785714285714  C 17.8461538461538 2.00669642857143  18.1191907051282 1.35509672619047  18.6652644230769 0.813058035714287  C 19.2113381410256 0.271019345238096  19.8677884615385 0  20.6346153846154 0  L 21.75 0  C 22.5168269230769 0  23.1732772435897 0.271019345238096  23.7193509615385 0.813058035714287  C 24.2654246794872 1.35509672619047  24.5384615384615 2.00669642857143  24.5384615384615 2.76785714285714  L 24.5384615384615 4.42857142857143  L 26.7692307692308 4.42857142857143  C 27.3733974358974 4.42857142857143  27.896233974359 4.64769345238095  28.3377403846154 5.0859375  Z " fill-rule="nonzero" fill="#000000" stroke="none" transform="matrix(1 0 0 1 352 275 )" />
  </g>
</svg>