﻿<?xml version="1.0" encoding="utf-8"?>
<svg version="1.1" xmlns:xlink="http://www.w3.org/1999/xlink" width="1920px" height="350px" xmlns="http://www.w3.org/2000/svg">
  <g transform="matrix(1 0 0 1 -3 -3 )">
    <path d="M 3.5 3.5  L 1922.5 3.5  L 1922.5 352.5  L 3.5 352.5  L 3.5 3.5  Z " fill-rule="nonzero" fill="#f2f2f2" stroke="none" />
    <path d="M 3.5 3.5  L 1922.5 3.5  L 1922.5 352.5  L 3.5 352.5  L 3.5 3.5  Z " stroke-width="1" stroke="#797979" fill="none" />
    <path d="M 5.69838946137034 3.49189391222897  L 1920.30161053863 352.508106087771  M 1920.30161053863 3.49189391222897  L 5.69838946137034 352.508106087771  " stroke-width="1" stroke="#797979" fill="none" />
  </g>
</svg>