﻿<?xml version="1.0" encoding="utf-8"?>
<svg version="1.1" xmlns:xlink="http://www.w3.org/1999/xlink" width="347px" height="5px" xmlns="http://www.w3.org/2000/svg">
  <g transform="matrix(1 0 0 1 -18 -210 )">
    <path d="M 19 212  L 363 212  " stroke-width="2" stroke="#9d9d9d" fill="none" />
  </g>
</svg>