﻿<?xml version="1.0" encoding="utf-8"?>
<svg version="1.1" xmlns:xlink="http://www.w3.org/1999/xlink" width="18px" height="19px" preserveAspectRatio="xMidYMin meet" viewBox="737 198  16 19" xmlns="http://www.w3.org/2000/svg">
  <path d="M 615.5 183  L 615.5 200.5  L 745.5 200.5  L 745.5 207  " stroke-width="1" stroke="#333333" fill="none" />
  <path d="M 739.2 206  L 745.5 212  L 751.8 206  L 739.2 206  Z " fill-rule="nonzero" fill="#333333" stroke="none" />
</svg>