﻿<?xml version="1.0" encoding="utf-8"?>
<svg version="1.1" xmlns:xlink="http://www.w3.org/1999/xlink" width="18px" height="19px" preserveAspectRatio="xMidYMin meet" viewBox="126 303  16 19" xmlns="http://www.w3.org/2000/svg">
  <path d="M 197.5 271  L 197.5 293.5  L 134.5 293.5  L 134.5 312  " stroke-width="1" stroke="#333333" fill="none" />
  <path d="M 128.2 311  L 134.5 317  L 140.8 311  L 128.2 311  Z " fill-rule="nonzero" fill="#333333" stroke="none" />
</svg>