﻿<?xml version="1.0" encoding="utf-8"?>
<svg version="1.1" xmlns:xlink="http://www.w3.org/1999/xlink" width="374px" height="139px" xmlns="http://www.w3.org/2000/svg">
  <g transform="matrix(1 0 0 1 -1 -1 )">
    <path d="M 1.5 1.5  L 374.5 1.5  L 374.5 139.5  L 1.5 139.5  L 1.5 1.5  Z " fill-rule="nonzero" fill="#f2f2f2" stroke="none" />
    <path d="M 1.5 1.5  L 374.5 1.5  L 374.5 139.5  L 1.5 139.5  L 1.5 1.5  Z " stroke-width="1" stroke="#797979" fill="none" />
    <path d="M 2.26104611581343 1.46867756710713  L 373.738953884187 139.531322432893  M 373.738953884187 1.46867756710713  L 2.26104611581343 139.531322432893  " stroke-width="1" stroke="#797979" fill="none" />
  </g>
</svg>