﻿<?xml version="1.0" encoding="utf-8"?>
<svg version="1.1" xmlns:xlink="http://www.w3.org/1999/xlink" width="375px" height="150px" xmlns="http://www.w3.org/2000/svg">
  <g transform="matrix(1 0 0 1 -1 -1 )">
    <path d="M 1.5 1.5  L 375.5 1.5  L 375.5 150.5  L 1.5 150.5  L 1.5 1.5  Z " fill-rule="nonzero" fill="#f2f2f2" stroke="none" />
    <path d="M 1.5 1.5  L 375.5 1.5  L 375.5 150.5  L 1.5 150.5  L 1.5 1.5  Z " stroke-width="1" stroke="#797979" fill="none" />
    <path d="M 2.16059586360657 1.46423834544263  L 374.839404136393 150.535761654557  M 374.839404136393 1.46423834544263  L 2.16059586360657 150.535761654557  " stroke-width="1" stroke="#797979" fill="none" />
  </g>
</svg>